// Jest Snapshot v1, https://goo.gl/fbAQLP

exports[`Main should render button for showing/hiding candidates if url is linkedin.com 1`] = `
<DocumentFragment>
  <main
    class="container"
  >
    <button
      class="button "
    >
      <span
        class="text "
      >
        Make the seen ones poof!
      </span>
    </button>
    <button
      class="button "
    >
      <span
        class="text "
      >
        Make the contacted ones poof!
      </span>
    </button>
  </main>
</DocumentFragment>
`;

exports[`Main should render secondary button it button is clicked 1`] = `
<DocumentFragment>
  <main
    class="container"
  >
    <button
      class="button "
    >
      <span
        class="text visible"
      >
        Make the seen ones poof!
      </span>
    </button>
    <button
      class="button pressed"
    >
      <span
        class="text visible"
      >
        Take the contacted ones back!
      </span>
    </button>
  </main>
</DocumentFragment>
`;
