// Jest Snapshot v1, https://goo.gl/fbAQLP

exports[`App should render component 1`] = `
<DocumentFragment>
  <div
    class="container visible"
  >
    <header
      class="container"
    >
      <h1
        class="title"
      >
        MPOOF
      </h1>
    </header>
    <main
      class="container"
    >
      <p
        class="text"
      >
        This extension only works on 
        <a
          href="#"
        >
          LinkedIn
        </a>
        .
      </p>
    </main>
  </div>
</DocumentFragment>
`;

exports[`App should set opacity to 1 after 1s 1`] = `
<DocumentFragment>
  <div
    class="container visible"
  >
    <header
      class="container"
    >
      <h1
        class="title"
      >
        MPOOF
      </h1>
    </header>
    <main
      class="container"
    >
      <p
        class="text"
      >
        This extension only works on 
        <a
          href="#"
        >
          LinkedIn
        </a>
        .
      </p>
    </main>
  </div>
</DocumentFragment>
`;
